%YAML 1.1
%TAG !u! tag:unity3d.com,2011:
--- !u!1045 &1
EditorBuildSettings:
  m_ObjectHideFlags: 0
  serializedVersion: 2
  m_Scenes:
  - enabled: 1
    path: Assets/Scenes/2.unity
    guid: 1ea50cdfcdcb96f4185cd2e953dda8d1
  - enabled: 1
    path: Assets/Scenes/Doctor's Office.unity
    guid: 8b32d5f63501b1941aab8f7c9ad551b9
  - enabled: 0
    path: Assets/Scenes/XR Rig Setup Scene.unity
    guid: d1c3109bdb54ad54c8a2b2838528e640
  m_configObjects:
    Unity.XR.Oculus.Settings: {fileID: 11400000, guid: 1c6d1c18067968341a92bf2cb38100cb, type: 2}
    com.unity.xr.management.loader_settings: {fileID: 11400000, guid: 1702e7e97eebf5e46bbf255f62bb8087, type: 2}
    com.unity.xr.openxr.settings4: {fileID: 11400000, guid: 22b5a9f3146130c448415fc6dcf746ea, type: 2}
